Lab 5
…
Team

team_milk <- milk %>%
  filter(state %in% c("Texas", "Colorado", "California", "Tennessee", "Illinois"))  

national <- milk %>%
  group_by(year) %>%
  summarise(milk = mean(milk_million))

team_milk$average <- national$milk

group_by(milk, year) %>%
  summarise(milk = mean(milk_million)) 

## # A tibble: 48 x 2
##     year  milk
##    <dbl> <dbl>
##  1  1970 2340.
##  2  1971 2371.
##  3  1972 2400.
##  4  1973 2310.
##  5  1974 2312.
##  6  1975 2308.
##  7  1976 2404.
##  8  1977 2453.
##  9  1978 2429.
## 10  1979 2467.
## # ... with 38 more rows
…
